name,set,color,qty,in_decks,foil
Aether Gale,C21,U,1,0,0
Annul,KHM,U,4,0,0
Ashes to Ashes,REN,B,4,2,
Augur of Bolas,FNM,U,4,0,4
Barren Moor,MH1,Land,4,4,
Birchlore Rangers,ONS,G,4,4,
Blink of an Eye,DOM,U,1,0,0
Careful Consideration,TSP,U,1,0,0
Chittering Rats,DST,B,4,4,
Choking Sands,MIR,B,2,2,
Compulsive Research,MM3,U,2,0,2
Counterspell,FBB,U,4,0,
Crop Rotation,ULG,G,2,0,0
Cuombajj Witches,REN,B,2,2,
Daze,NEM,U,4,0,0
Defile,MH1,B,4,4,
Dinrova Horror,MM3,BU,1,0,1
Disdainful Stroke,GRN,U,1,0,0
Dispel,BFZ,U,4,0,0
Distant Melody,MOR,U,4,4,
Duress,USG,B,4,4,
Echoing Truth,MMA,U,1,0,0
Elvish Mystic,CMA,G,2,2,
Elvish Vanguard,EMA,G,4,3,1
Epiphany at the Drownyard,SOI,U,1,0,0
Essence Warden,CMA,G,2,2,
Evolving Wilds,RIX,Land,2,0,2
Expedition Map,2XM,Artifact,4,0,0
Expel from Orazca,RIX,U,1,0,0
Fact or Fiction,MH1,U,1,0,0
Faerie Miscreant,ORI,U,4,0,
Foil,MB1,U,4,0,0
Forbidden Alchemy,MM3,U,4,0,4
Frantic Search,C20,U,1,0,0
Fyndhorn Elves,ICE,G,2,2,
Geth's Verdict,NPH,B,4,4,
Gleeful Sabotage,SHM,G,3,3,
Gray Merchant of Asphodel,THS,B,4,4,
Guardian Idol,IMA,U,1,0,0
Gurmag Angler,FRF,B,4,2,
Harsh Sustenance,FRF,BW,1,1,
Into the Roil,ZNR,U,1,0,0
Jace's Ingenuity,M15,U,1,0,0
Jhessian Thief,IMA,U,4,0,4
Lead the Stampede,IMA,G,4,4,4
Llanowar Elves,FBB,G,4,4,
Lys Alana Huntmaster,EMA,G,4,3,1
Mass Manipulation,RNA,U,1,0,0
Mercurial Pretender,M15,U,1,0,0
Mimic Vat,C20,Artifact,1,0,0
Mnemonic Wall,IMA,U,4,0,4
Monastery Siege,FRF,U,1,0,0
Mulldrifter,KHC,U,4,0,0
Myriad Landscape,C20,L,1,0,0
Narcolepsy,MM2,U,4,0,4
Neutralize,IKO,U,1,0,0
Ninja of the Deep Hours,C18,U,4,0,0
Opportunity,ULG,U,1,0,0
Pestilence,FBB,B,4,2,
Precognitive Perception,RNA,U,1,0,0
Preordain,CMR,U,4,0,0
Priest of Titania,USG,G,4,4,
Prohibit,MH1,U,4,0,0
Prophetic Prism,A25,Artifact,1,0,1
Prophetic Prism,CMR,Artifact,3,0,3
Pulse of Murasa,M20,G,4,0,0
Quirion Elves,INV,G,4,0,0
Quirion Ranger,VIS,G,4,4,
Rain of Revelation,MH1,U,1,0,0
Read the Runes,C16,U,1,0,0
Relic of Progenitus,EMA,Artifact,1,1,
Saheeli's Artistry,KLD,U,1,0,0
Serrated Arrows,MB1,Artifact,2,0,0
Shimmering Grotto,MM3,Land,4,0,4
Sign in Blood,MM2,B,4,3,
Sky Diamond,CMR,Artifact,1,0,0
Snap,ULG,U,1,0,0
Snuff Out,MMQ,B,2,0,0
Spidersilk Armor,MMQ,G,3,3,
Stolen Identity,ZNC,U,1,0,0
Supplant Form,FRF,U,1,0,0
Sylvan Ranger,MM3,G,4,2,4
Tendrils of Corruption,DDD,B,3,3,
Tendrils of Corruption,DDE,B,1,1,
Thorn of the Black Rose,CN2,B,4,3,
Thornwood Falls,EMA,Land,3,0,3
Timberwatch Elf,CMA,G,2,2,
Timberwatch Elf,LGN,G,2,2,
Tranquil Cove,EMA,Land,2,0,2
Tranquil Cove,KTK,Land,2,0,2
Turn Aside,EMN,U,1,0,0
Unknown Shores,XLN,Land,4,0,0
Vesuvan Shapeshifter,C19,U,1,0,0
Victim of Night,ISD,B,4,2,
Viridian Longbow,MRD,Artifact,2,2,
Wayfarer's Bauble,,Artifact,1,0,0
Wellwisher,CMA,G,2,2,
Wellwisher,ONS,G,1,1,
Whisper Agent,GRN,UB,4,4,
Wildheart Invoker,A25,G,2,1,1
Worn Powerstone,PLIST,Artifact,1,0,0
Wrap in Vigor,CNS,G,2,2,
Wrench Mind,IMA,B,4,4,
Zndrsplt's Judgment,BBD,U,1,0,0
Scattershot Archer,CON,G,4,4,0